{
  "files": {
    "main.css": "/static/css/main.a4322dfc.chunk.css",
    "main.js": "/static/js/main.de2e99f6.chunk.js",
    "main.js.map": "/static/js/main.de2e99f6.chunk.js.map",
    "runtime~main.js": "/static/js/runtime~main.eb06caff.js",
    "runtime~main.js.map": "/static/js/runtime~main.eb06caff.js.map",
    "static/js/2.c68f0f9f.chunk.js": "/static/js/2.c68f0f9f.chunk.js",
    "static/js/2.c68f0f9f.chunk.js.map": "/static/js/2.c68f0f9f.chunk.js.map",
    "index.html": "/index.html",
    "precache-manifest.9afe4e63adad65f181d7c9f397ae558d.js": "/precache-manifest.9afe4e63adad65f181d7c9f397ae558d.js",
    "service-worker.js": "/service-worker.js",
    "static/css/main.a4322dfc.chunk.css.map": "/static/css/main.a4322dfc.chunk.css.map",
    "static/media/logo.png": "/static/media/logo.03c18999.png"
  }
}